EPA’s Ambient Air Monitoring
…
2. Definition of the study area

#Absolute path of the MS locations in the FTP server
locfile <- 'Data/AirNow/monitoring_site_locations.dat'

#Metadata on MonitoringSiteFactSheet.pdf
fieldnames <- c("AQSID","parameter.name","site.code","site.name","status","agency.id","agency.name","EPA.region","latitude","longitude","elevation","GMT.offset","country.code","CMSA.code","CMSA.name","MSA.code","MSA.name","state.code","state.name","county.code","county.name","city.code","city.name")

#Read the .dat file in a tibble dataframe. Tibbles are modern data frames that keep the useful features of the traditional data frames and drop ones that were frustating (e.g. character vectors to factor, show only columns that fit to the screen when printing, etc.)
MS <- read_delim(locfile, delim='|', col_names = fieldnames, progress = TRUE)
print(MS)

## # A tibble: 10,110 x 23
##    AQSID  parameter.name site.code site.name status agency.id agency.name 
##    <chr>  <chr>          <chr>     <chr>     <chr>  <chr>     <chr>       
##  1 17115… O3             0013      DECATUR   Active IL1       Illinois EPA
##  2 17115… PM2.5          0013      DECATUR   Active IL1       Illinois EPA
##  3 17115… RWD            0013      DECATUR   Active IL1       Illinois EPA
##  4 17117… O3             0002      NILWOOD   Active IL1       Illinois EPA
##  5 17143… O3             0024      PEORIA_F  Active IL1       Illinois EPA
##  6 17167… O3             0010      SPFLD_PH  Inact… IL1       Illinois EPA
##  7 18011… O3             0001      Whitesto… Active IN4       Indiana Dep…
##  8 18063… O3             0004      Avon      Active IN4       Indiana Dep…
##  9 18069… O3             0002      Roanoke … Active IN4       Indiana Dep…
## 10 18071… O3             0001      Brownsto… Active IN4       Indiana Dep…
## # ... with 10,100 more rows, and 16 more variables: EPA.region <chr>,
## #   latitude <dbl>, longitude <dbl>, elevation <dbl>, GMT.offset <dbl>,
## #   country.code <chr>, CMSA.code <chr>, CMSA.name <chr>, MSA.code <int>,
## #   MSA.name <chr>, state.code <chr>, state.name <chr>, county.code <chr>,
## #   county.name <chr>, city.code <chr>, city.name <chr>
…
MS.O3 <- MS.O3 %>% mutate(group=ifelse(nb_na < 0.1*nbDays, '>90%', ifelse(nb_na > 0.8*nbDays, '<20%', '20%-90%'))) #create groups according the different type of data frequency as noticed in the time series diagnostic
pal.typeData <- c('<20%'='#f66253','>90%'='#86b24f','20%-90%'='#f6a760') #create a color palette corresponding to these groups

print(MS.O3)

## # A tibble: 21 x 13
##    AQSID     nb_na mean_val site.name status   state.name county.name
##    <chr>     <int>    <dbl> <chr>     <chr>    <chr>      <chr>      
##  1 170310001    53     35.8 ALSIP     Active   IL         COOK       
##  2 170310032   759     42.4 CHI_SWFP  Active   IL         COOK       
##  3 170310064  1616     13.7 CHI_U     Inactive IL         COOK       
##  4 170310076   109     34.6 CHI_COM   Active   IL         COOK       
##  5 170311003  1573     31.8 CHI_TAFT  Active   IL         COOK       
##  6 170311601    63     36.2 LEMONT    Active   IL         COOK       
##  7 170313103    55     29.6 SCHILPRK  Active   IL         COOK       
##  8 170314002    43     33.1 CICERO    Active   IL         COOK       
##  9 170314007   652     40.9 DESPLNS   Active   IL         COOK       
## 10 170314201   101     37.0 NORTHBRK  Active   IL         COOK       
## # ... with 11 more rows, and 6 more variables: primary.objective <chr>,
## #   secondary.objective <chr>, spatial.scale <chr>, station.type <chr>,
## #   geometry <POINT [m]>, group <chr>
…
