Time Serie Analysis
…
The daily peak values of the PM2.5 concentration don’t show a particular trend but it seems that seasonality is present in the time series, with higher values of PM2.5 during summer. Time series patterns will be further studied in the following section.

It is important to note that the red line, showing the PM2.5 limit according to the National Air Quality Standards (NAAQS) concern daily average and not daily peak. Thus, we cannot say that there are exceedances to the NAAQS standards. However, it allows to detect particulary high values of the PM2.5 concentration at three different days, that could be harmful for the exposed population.

During 2016 summer, we can detect points of PM2.5 concentration that seem negative. Indeed, 24 days recorded negative values which is completely impossible in reality, this may correspond period with sensor malfunction and the data were falsely keepen in the dataset. These values are replaced by NA (missing values). I will add a step in the cleaning process to detect if this problem appear in other time series.

#Print rows with negative values for the PM2.5 concentration (inconsistent values)
data %>% filter(!is.na(value) & value<0) 

## # A tsibble: 24 x 3 [1DAY]
## # Keys:      AQSID [1]
##    date           AQSID  value
##    <date>         <int>  <dbl>
##  1 2014-01-06 170310076 -0.300
##  2 2016-08-18 170310076 -1.40 
##  3 2016-08-19 170310076 -1.40 
##  4 2016-08-20 170310076 -1.40 
##  5 2016-08-21 170310076 -1.50 
##  6 2016-08-22 170310076 -1.40 
##  7 2016-08-23 170310076 -1.40 
##  8 2016-08-24 170310076 -1.40 
##  9 2016-08-25 170310076 -1.40 
## 10 2016-08-26 170310076 -1.40 
## # ... with 14 more rows
…
